213	92	182	346	335	347	91	0	107	192	99	186	111	106	104	360	216	367	104	358	88	206	208	82	209	96	210	192	200	100	359	192	193	214	334	90	183	81	197	197	364	77	77	333	108	359	200	89	347	211	198	336	93	367	361	341	186	360	345	365	105	112	354	183	355	336	82	113	93	185	92	205	198	94	355	350	334	350	345	337	337	333	92	113	198	107	361	185	354	98	77	112	91	198	348	346	359	334	349	183	338	208	99	332	338	77	204	217	211	346	356	343	87	340	216	194	205	207	344	352
213	201	356	336	363	193	188	86	91	216	201	96	333	359	86	363	188	201	368	79	189	198	353	217	113	209	345	361	112	210	215	346	100	96	188	338	112	343	195	338	193	197	215	97	101	187	207	365	194	214	214	212	183	101	106	102	191	89	333	345	211	0	359	338	94	218	207	83	367	88	355	211	336	216	206	101	82	332	105	192	89	201	344	360	104	212	346	362	368	82	109	186	364	88	106	366	111	98	207	207	358	92	95	199	213	342	347	354	184	183	183	110	89	364	340	108	183	205	358	86
0	94	363	78	102	105	353	205	185	78	336	359	106	110	351	78	204	197	348	361	82	105	350	214	344	218	367	198	347	206	85	218	338	194	354	80	216	96	346	202	347	207	212	336	194	208	106	187	81	103	194	359	92	198	217	214	340	216	108	112	79	197	216	104	187	337	214	187	99	110	202	214	186	99	356	196	189	82	350	111	366	346	364	346	357	333	110	345	93	354	342	352	89	335	335	81	96	185	355	212	335	211	333	105	109	368	355	367	79	339	364	88	355	348	209	360	86	357	335	97
360	106	352	192	86	183	78	367	337	104	340	188	334	93	195	338	354	336	78	206	95	214	341	183	104	112	342	362	205	101	0	84	215	346	205	109	78	364	211	97	100	111	107	108	352	332	351	218	192	333	200	107	94	333	200	190	187	94	82	93	355	92	337	206	206	360	111	357	93	336	203	346	90	353	206	189	80	338	101	340	354	81	212	211	213	338	210	93	95	98	95	208	83	351	198	85	110	187	207	332	196	348	103	361	362	334	361	195	207	208	352	208	367	182	338	349	341	218	92	98
337	102	211	212	209	204	108	213	357	195	112	90	188	85	347	101	203	97	351	189	215	366	81	200	86	0	201	207	202	340	196	106	90	196	192	187	89	87	200	352	215	344	209	112	201	368	109	349	90	367	336	212	183	209	361	362	88	90	182	345	347	347	191	182	351	194	211	82	103	334	92	345	99	209	113	203	349	81	99	187	78	93	194	111	111	213	80	90	198	342	338	190	347	205	98	186	95	190	111	95	334	196	191	353	101	187	346	343	101	203	94	191	103	83	336	92	90	108	198	87
364	193	189	83	90	218	358	87	338	343	335	352	93	211	107	91	202	196	346	193	194	186	339	96	196	99	87	87	212	332	87	83	103	354	345	84	113	200	86	78	355	112	338	202	187	88	188	358	190	360	344	189	213	101	205	96	189	368	214	342	342	353	344	333	193	201	208	94	107	217	99	212	195	193	113	354	90	84	109	361	332	352	350	102	344	359	185	206	215	339	105	209	82	95	95	347	184	197	196	107	357	210	186	187	0	211	93	340	95	94	198	89	80	77	89	346	365	92	96	336
211	355	210	82	99	107	187	360	360	360	192	337	353	81	88	340	365	202	213	366	367	192	342	94	213	207	99	205	192	194	80	184	89	355	214	89	108	367	91	182	102	107	339	356	338	213	93	111	355	196	352	182	334	190	100	333	339	345	209	199	83	354	101	341	211	105	208	80	208	342	341	110	110	346	89	360	90	203	91	108	97	200	0	79	88	354	97	194	211	101	80	79	85	350	95	193	99	217	343	348	188	86	206	81	191	342	333	110	81	208	104	336	86	212	110	347	93	334	358	83
84	79	185	112	94	183	192	193	209	203	199	205	214	214	348	93	212	96	110	336	183	83	186	364	77	359	350	211	344	94	95	93	208	77	345	105	108	205	357	335	198	196	339	200	109	353	214	103	96	183	113	340	109	99	97	100	215	366	350	183	214	364	196	361	365	196	89	189	80	197	360	340	359	336	0	96	109	88	191	186	367	211	209	211	202	184	198	351	194	91	89	97	356	91	183	182	81	356	84	214	90	107	365	368	183	218	195	190	79	101	213	188	203	81	350	193	108	81	361	100
82	182	366	109	218	79	345	218	197	345	190	203	363	106	94	193	211	366	83	358	98	89	353	89	199	218	202	341	368	85	113	211	343	82	363	352	188	185	215	184	336	359	343	333	361	197	333	113	104	346	204	211	80	105	344	354	109	215	100	108	184	188	344	336	92	341	212	194	96	366	356	190	188	333	193	210	97	200	365	361	192	108	358	190	196	0	112	87	197	113	88	182	353	86	94	99	344	332	338	92	93	354	339	191	183	337	348	217	86	208	340	333	81	113	191	364	202	349	340	351
112	98	342	364	85	78	113	87	368	212	194	104	109	81	356	104	189	0	77	90	197	338	334	336	102	351	113	355	189	342	363	335	192	340	184	348	103	107	193	83	78	365	83	88	363	343	96	334	349	218	214	343	102	211	367	365	105	113	197	363	358	92	347	351	93	182	347	87	193	82	91	350	343	196	98	105	367	106	341	82	350	113	184	346	201	77	98	93	207	87	83	341	111	341	85	95	195	191	339	84	343	336	347	200	214	355	351	352	88	202	196	214	363	357	200	98	111	194	190	77
344	89	211	187	208	100	342	185	104	106	194	0	187	187	199	77	100	99	80	363	100	356	78	82	82	93	95	106	195	105	92	107	94	339	216	198	362	334	104	184	342	346	366	190	358	113	113	103	106	190	78	112	363	207	336	188	184	346	96	99	342	84	333	85	101	354	84	103	86	200	208	197	342	368	357	89	98	90	88	101	207	108	351	106	201	352	217	199	368	218	90	349	216	367	344	335	355	102	349	98	99	206	213	187	339	337	195	80	81	188	88	101	360	357	346	337	190	368	338	111
197	77	218	86	216	362	365	94	332	91	346	186	338	337	203	105	365	109	92	0	350	363	356	101	201	207	208	366	191	110	336	98	84	113	182	79	194	203	215	354	187	215	191	112	210	204	336	349	335	348	97	91	194	95	208	88	85	185	78	182	332	346	109	104	335	185	189	196	335	80	205	102	100	367	218	105	207	199	103	95	77	184	344	218	201	87	111	110	95	94	203	86	103	361	102	200	347	100	333	104	182	360	344	208	93	203	195	212	340	362	100	90	355	189	338	215	216	93	355	198
213	107	201	335	112	89	217	353	200	99	83	201	189	87	349	346	353	99	366	357	103	356	201	78	87	342	205	333	337	105	218	340	190	351	336	207	97	213	89	199	216	200	188	356	182	333	81	217	93	357	215	355	365	82	354	100	342	98	92	106	333	98	188	355	350	200	337	192	362	345	354	332	338	366	100	366	84	218	216	367	360	80	343	349	104	361	88	218	350	198	110	91	98	199	210	341	345	0	201	94	105	193	198	77	360	103	336	210	86	334	86	189	107	361	194	218	78	100	337	354
107	0	207	102	94	359	97	77	188	110	91	197	94	79	205	347	358	346	86	349	77	183	212	102	186	102	192	95	94	215	191	336	366	197	186	195	351	336	362	212	100	93	367	98	340	339	337	93	343	184	110	85	184	207	112	352	368	193	93	342	209	333	87	349	94	93	194	358	203	79	210	362	212	185	113	197	109	367	213	359	342	346	346	188	340	208	92	99	206	214	206	361	204	97	94	367	202	107	92	343	352	184	199	93	88	365	107	342	188	361	185	194	212	340	193	78	104	341	368	337
185	77	87	343	203	183	84	208	208	351	206	93	334	206	217	361	112	88	110	113	361	104	85	358	337	192	77	351	104	364	206	103	105	101	184	99	358	112	354	332	215	350	86	84	113	361	190	79	349	342	193	341	357	218	94	111	367	103	332	355	215	80	80	212	197	348	214	206	201	86	95	93	84	332	339	86	349	207	194	93	344	198	200	354	195	362	198	189	184	210	197	211	0	352	78	334	89	335	357	87	367	111	353	334	199	357	340	103	199	101	206	368	349	350	334	111	80	84	356	110
100	197	205	187	189	185	352	101	111	109	335	204	335	86	339	190	183	337	88	110	348	108	354	186	191	367	103	204	104	93	202	197	332	79	363	82	355	190	215	353	217	357	105	346	335	332	112	353	193	112	202	185	336	355	112	349	367	217	345	199	77	196	212	337	189	199	342	85	186	182	346	184	360	95	113	358	186	359	91	217	353	201	99	103	355	97	197	362	200	339	96	101	333	104	341	368	218	336	100	367	108	0	338	195	99	215	338	183	96	191	112	368	194	346	78	196	85	203	351	218
106	101	344	346	208	346	96	104	346	195	92	110	211	212	332	109	207	360	206	212	100	345	89	187	345	334	89	83	217	203	182	360	202	88	195	94	103	352	95	189	338	345	197	183	87	88	345	102	352	106	94	201	343	213	184	218	82	82	365	359	188	196	363	343	352	201	94	358	107	361	82	96	193	105	90	192	182	89	99	196	217	193	77	341	212	200	341	210	78	185	0	101	100	207	95	203	184	361	104	187	335	102	367	201	200	350	215	346	363	94	90	98	104	196	341	217	355	184	213	202
204	111	332	113	362	365	363	334	217	212	341	84	111	103	89	366	189	209	346	363	364	347	346	361	351	340	336	352	191	201	81	103	342	101	338	351	201	79	106	185	113	217	358	341	188	200	83	362	364	338	202	345	191	78	193	345	335	359	365	80	349	107	367	206	83	109	183	348	348	77	199	336	195	190	106	345	204	348	187	80	82	199	342	185	88	340	109	215	109	187	97	194	188	344	82	0	183	103	351	182	337	368	77	206	208	347	109	88	103	192	198	335	107	214	332	365	356	92	194	360
92	356	202	100	77	357	349	353	216	333	200	335	199	348	113	83	196	187	207	340	183	101	88	359	77	342	215	361	0	348	195	87	182	367	202	100	203	345	366	184	359	218	110	208	198	357	213	217	349	110	209	97	83	208	348	187	108	103	201	198	347	83	362	342	87	99	344	97	216	334	355	195	95	212	91	90	100	338	367	94	102	341	216	355	190	190	343	197	215	358	190	364	368	192	77	95	213	111	343	342	346	210	89	213	206	102	361	185	207	91	105	211	347	355	87	351	367	96	340	107
347	101	109	340	335	87	346	355	99	197	357	184	103	357	361	214	108	211	199	212	185	106	353	185	183	86	103	100	340	345	198	91	350	348	357	91	193	81	214	205	77	337	81	357	338	211	103	189	93	356	110	332	188	90	110	352	198	361	342	345	106	345	215	348	355	342	341	108	86	338	365	184	80	343	82	201	92	337	87	340	0	343	88	200	79	87	96	103	188	106	355	344	104	193	190	345	204	356	342	214	360	113	101	106	185	200	184	201	80	347	189	103	185	191	196	191	88	211	350	103
81	192	77	92	190	351	216	215	90	359	347	186	202	212	339	215	186	210	187	201	206	184	208	346	358	87	338	202	101	198	197	362	185	332	185	107	78	108	104	203	356	360	340	363	79	96	345	183	346	183	111	199	86	216	333	192	348	368	110	197	340	194	356	107	351	87	89	94	184	212	217	85	332	112	92	342	196	366	357	351	104	198	210	360	198	210	101	111	211	96	351	101	355	360	354	192	357	207	86	79	189	354	201	85	337	0	337	366	112	183	349	203	342	336	96	87	335	106	350	84
361	343	107	336	346	98	81	354	102	96	94	100	113	353	336	196	80	339	187	207	359	218	202	113	354	112	108	213	361	109	212	97	108	101	185	185	357	214	193	361	77	187	212	98	203	104	196	95	193	105	99	0	207	196	94	216	353	209	357	214	344	218	344	98	336	209	212	95	78	83	191	361	113	365	187	335	335	88	110	187	204	93	105	196	89	217	199	351	335	368	199	332	93	78	202	217	347	88	101	366	188	334	85	343	353	105	200	97	103	98	368	203	86	193	109	185	110	89	92	361
107	201	202	366	214	83	363	216	196	79	365	86	202	359	112	112	204	103	333	192	89	366	209	345	361	186	336	364	199	355	209	332	199	103	339	338	84	77	206	113	87	207	85	348	218	197	368	363	360	339	82	363	94	360	204	210	347	366	339	356	334	106	359	357	110	187	101	209	334	333	93	0	360	335	96	352	213	341	207	368	184	206	335	202	100	364	340	360	77	195	199	334	201	338	350	95	355	182	367	337	189	209	360	366	368	91	84	192	187	339	185	211	218	97	214	367	346	190	357	88
208	106	194	363	89	98	355	189	344	78	352	193	110	83	101	216	353	77	109	334	196	211	353	206	107	335	364	79	82	77	334	359	111	101	207	91	343	77	81	367	348	96	209	203	207	212	113	349	84	113	102	196	90	213	95	211	0	366	332	100	211	363	79	195	205	348	334	215	351	86	345	335	365	346	104	207	103	111	218	205	214	200	82	82	184	200	197	339	84	211	97	200	196	345	113	355	214	78	213	107	353	352	199	365	109	104	79	190	81	185	89	87	214	206	334	195	79	357	183	359
333	184	192	365	85	85	83	88	342	80	95	108	211	93	98	199	205	86	98	214	196	110	101	196	186	81	349	186	101	332	77	368	347	361	103	337	101	77	189	218	365	215	98	0	337	184	214	347	350	198	195	338	100	113	193	103	342	79	350	342	92	212	339	213	359	192	363	341	103	348	183	195	343	346	200	344	183	202	195	192	218	192	208	109	359	77	205	368	109	80	98	108	366	211	92	365	96	333	201	185	81	86	108	105	199	102	216	352	99	359	345	88	192	204	96	351	363	110	205	361
343	106	344	354	210	112	88	106	194	206	95	367	112	88	357	347	350	209	79	217	340	99	186	352	211	212	214	184	200	89	82	355	215	110	368	203	85	111	78	358	343	216	366	101	87	96	112	90	203	199	186	342	333	99	101	368	95	204	209	351	190	189	200	201	189	108	185	194	364	351	96	338	105	99	208	361	347	197	208	353	358	357	102	89	207	339	102	82	107	85	88	108	105	355	79	357	87	80	201	212	354	86	345	194	366	94	197	92	352	189	353	215	348	347	367	78	206	0	188	347
366	104	364	349	195	99	104	218	184	207	86	91	80	211	188	337	364	186	200	186	192	87	350	78	347	185	212	94	211	189	201	81	356	77	343	194	101	78	335	333	103	107	105	207	359	99	355	83	338	81	185	111	104	214	197	103	77	332	211	352	86	335	188	96	91	101	192	96	93	201	182	335	83	196	192	90	111	200	206	204	347	359	105	187	335	78	337	336	0	82	340	88	217	212	112	358	351	89	196	105	95	112	88	185	350	94	195	347	102	81	82	96	113	84	347	192	332	182	89	218
86	188	214	95	217	333	86	106	340	104	367	202	107	217	345	212	195	96	202	358	366	343	348	332	81	184	100	214	84	182	102	101	109	211	199	213	106	78	84	202	106	343	83	189	96	196	185	99	112	355	339	343	80	113	356	83	188	107	203	363	358	339	351	90	366	98	89	98	363	89	201	188	215	210	195	352	333	213	340	183	85	182	351	90	107	361	206	81	336	203	79	191	340	359	97	346	207	367	216	193	110	357	341	195	90	103	84	356	0	92	80	342	111	92	112	206	206	210	350	189
355	104	365	351	335	334	211	79	105	350	332	357	82	209	359	81	340	216	208	360	86	198	187	364	183	193	350	193	206	113	101	360	355	205	207	88	362	332	357	352	91	112	91	91	92	332	203	215	100	364	100	104	357	94	106	106	197	356	201	358	83	205	351	195	190	102	103	84	203	81	190	212	346	79	363	0	88	340	93	96	191	101	344	334	184	215	368	210	363	79	113	332	354	195	340	84	112	218	109	94	190	208	88	333	215	90	346	335	210	192	356	347	346	212	93	343	80	84	112	208
112	365	97	194	83	356	208	193	112	337	85	104	184	94	79	357	97	349	105	100	192	364	0	184	197	336	85	198	103	110	79	361	86	353	185	111	99	211	185	190	215	89	113	108	357	347	96	111	212	103	337	93	198	189	191	101	336	335	198	191	334	108	216	363	211	191	108	209	77	202	90	77	78	191	77	182	90	215	196	200	351	101	183	96	89	339	353	193	333	216	88	98	367	357	360	202	198	89	81	198	203	183	357	112	210	359	334	218	359	97	202	342	356	188	347	336	207	97	200	352
335	338	207	349	339	112	204	360	96	337	184	359	99	83	96	92	342	84	200	189	87	355	183	204	88	111	89	91	93	89	214	337	190	101	350	101	343	356	214	358	102	334	85	101	98	195	191	208	84	341	204	102	212	340	89	192	353	78	367	184	366	106	94	339	188	217	355	195	104	360	217	89	185	201	103	92	96	199	80	210	338	332	110	104	355	346	348	332	101	103	209	89	92	208	103	86	79	195	334	366	218	206	363	184	206	353	110	0	214	193	350	86	218	107	182	341	204	112	353	354
191	215	87	201	82	202	348	111	354	189	347	97	196	90	338	99	91	105	345	88	96	195	77	341	189	87	352	207	210	207	363	183	108	366	338	342	339	349	358	190	85	338	197	358	214	213	186	83	98	104	360	90	349	201	105	362	215	349	81	214	343	82	336	102	368	87	201	195	215	101	337	102	366	85	110	79	108	365	87	347	193	350	81	347	342	352	183	347	91	332	186	207	349	340	216	353	182	348	113	201	80	213	201	89	357	82	200	357	342	88	349	81	0	213	99	100	87	208	108	334
343	87	185	343	81	89	351	83	88	362	183	82	362	103	215	102	346	192	217	100	215	77	199	103	94	353	85	98	90	102	350	205	213	100	207	188	83	336	191	347	208	187	199	208	0	339	211	215	201	191	90	359	333	336	356	97	98	342	357	77	210	344	355	215	94	353	207	80	334	212	100	82	338	368	98	346	92	81	198	88	80	81	94	198	358	362	355	215	208	343	366	363	344	95	213	333	101	365	357	109	103	202	209	348	107	350	360	213	339	339	339	193	212	195	95	88	183	77	364	359
341	113	342	91	333	93	77	84	359	206	360	198	86	81	109	357	367	107	365	210	199	350	347	211	212	94	337	79	366	364	342	100	112	190	82	208	196	363	190	201	338	97	0	107	358	333	200	84	193	99	347	83	338	351	81	341	203	366	86	336	213	106	98	183	211	186	364	364	99	83	362	341	356	358	362	97	90	90	77	98	103	357	342	185	346	189	89	88	96	359	84	360	361	357	206	188	363	217	188	204	351	343	218	364	364	113	213	194	101	97	206	362	210	79	91	104	103	351	364	211
212	339	105	184	340	362	86	193	189	77	189	208	214	206	354	216	100	190	107	183	199	332	353	91	87	343	338	195	356	365	79	82	362	98	218	182	82	354	356	350	89	103	103	102	191	357	98	83	0	212	85	338	362	99	354	90	194	209	361	353	112	101	103	335	77	213	185	97	209	344	216	346	198	203	357	338	187	193	215	81	90	368	95	218	84	343	346	202	188	333	340	332	107	80	105	363	335	108	339	88	90	361	109	346	211	193	78	362	91	209	342	340	187	360	332	360	358	99	191	347
344	83	188	334	204	94	210	100	364	205	193	335	206	183	99	79	207	103	194	93	96	109	113	351	213	190	336	216	77	96	98	365	351	213	187	203	209	100	352	185	82	111	353	336	83	359	333	368	333	351	206	194	368	196	202	367	364	215	106	351	100	217	112	95	336	195	81	102	207	185	101	340	183	211	216	213	192	191	208	97	188	92	338	359	195	339	107	97	335	193	105	103	112	356	201	200	208	99	212	218	352	95	92	215	365	79	211	332	344	0	212	190	335	340	364	88	80	211	103	338
112	104	349	91	97	92	215	355	82	98	195	88	186	198	111	191	90	205	343	364	187	360	361	207	211	203	107	206	365	340	199	104	105	212	194	202	204	345	101	218	214	93	194	107	105	197	90	197	182	340	334	354	216	341	94	338	336	215	332	81	342	203	204	106	332	191	356	83	342	0	345	207	92	210	367	81	338	96	77	78	358	83	88	95	102	96	197	81	92	99	198	193	77	354	197	97	211	199	100	199	204	211	342	346	201	194	95	185	202	354	205	355	204	87	202	91	209	89	354	182
365	91	353	336	91	360	101	111	351	89	367	348	201	355	361	354	336	218	337	218	92	358	213	199	185	216	191	103	363	212	363	190	90	361	352	183	98	214	84	351	355	97	85	333	91	197	94	347	339	112	94	108	190	107	337	93	368	205	213	197	112	335	88	84	0	211	204	190	78	216	214	360	336	191	335	339	106	205	341	333	185	207	103	86	205	205	105	79	201	201	351	108	98	339	198	217	352	357	340	218	214	187	84	109	352	82	85	101	353	101	93	95	209	335	81	195	361	187	189	344
104	362	337	203	95	99	101	347	341	90	81	105	333	79	351	94	100	366	347	108	364	351	345	113	201	338	203	333	355	105	353	89	198	337	107	104	196	368	214	361	365	332	197	333	367	218	367	110	195	195	90	344	342	198	104	197	208	94	212	202	0	359	338	343	84	347	200	198	342	353	183	184	346	87	100	83	88	89	342	356	190	353	200	215	81	199	197	191	95	337	111	197	336	195	95	182	81	350	355	103	185	110	358	199	205	201	192	202	113	81	185	95	334	205	88	184	101	96	199	183
334	336	205	210	195	187	102	113	109	81	363	82	351	363	86	82	362	346	364	211	87	198	207	85	357	199	92	340	361	355	87	214	185	335	0	211	356	84	83	211	356	358	335	206	110	112	103	363	334	80	79	198	112	352	192	348	200	106	217	190	347	350	336	208	87	346	209	189	183	366	87	360	348	183	94	213	111	205	218	205	196	341	79	106	368	336	195	103	340	91	340	93	107	107	204	200	183	92	207	359	113	339	335	352	340	215	358	101	87	205	198	208	338	96	95	202	350	197	352	93
197	362	367	77	77	339	187	182	334	183	339	111	348	202	82	202	363	100	188	211	335	363	348	349	212	365	198	208	190	215	353	94	366	207	79	348	215	94	187	338	183	338	218	199	103	360	342	192	108	346	363	362	82	188	84	197	214	87	185	347	99	77	362	111	184	110	354	95	366	358	103	183	101	334	113	86	90	338	111	0	80	355	187	353	203	203	214	207	368	215	100	336	109	359	79	339	188	84	90	205	213	107	348	92	185	106	191	339	336	104	83	93	199	185	357	210	208	192	340	87
216	204	353	336	111	95	92	185	195	88	82	334	184	90	341	106	188	190	357	113	88	340	209	199	358	360	101	347	351	90	81	368	349	101	102	96	209	366	207	212	188	213	188	342	352	78	359	197	93	209	182	215	191	193	367	351	356	89	349	83	333	350	217	347	354	211	98	194	78	355	348	333	341	358	211	84	83	98	86	91	194	0	344	84	204	212	99	79	362	205	111	93	218	205	82	96	187	359	80	363	86	90	201	334	105	195	87	207	337	107	188	106	338	339	205	99	97	204	196	105
213	194	79	183	92	196	88	113	89	111	217	89	100	89	96	0	78	183	185	362	94	82	195	338	96	358	348	207	213	359	208	340	98	187	113	94	90	194	91	98	346	338	183	355	349	350	336	363	79	357	348	103	77	88	190	334	197	333	360	209	108	337	102	214	84	368	113	98	78	84	100	85	196	183	335	353	92	368	95	86	94	341	206	353	213	338	348	211	368	364	87	195	367	108	85	353	216	356	209	205	363	364	104	355	103	355	191	204	185	201	215	94	353	184	216	83	204	111	209	343
113	184	367	87	200	205	199	186	342	194	215	108	354	364	91	91	332	217	363	214	109	185	198	207	192	346	112	106	86	188	213	204	110	206	364	209	102	344	206	212	361	342	366	199	110	112	212	351	361	204	190	358	89	211	92	95	343	82	81	366	367	111	334	200	184	335	347	334	204	97	337	86	79	186	90	353	99	344	187	98	208	218	88	343	210	99	332	335	193	199	343	184	101	84	77	96	206	86	215	196	364	361	190	350	187	182	196	183	215	84	88	0	109	95	82	82	367	357	112	348
111	78	80	354	186	96	97	336	332	335	352	357	349	188	103	88	92	86	196	357	107	83	105	340	89	360	104	348	189	110	368	339	97	189	86	88	359	109	345	113	87	192	94	96	213	198	346	188	92	347	360	88	99	197	211	218	358	196	84	349	90	347	333	108	110	109	361	191	367	343	84	201	359	0	202	98	362	183	212	96	189	346	213	78	217	360	367	89	199	196	357	94	108	216	337	206	348	188	200	197	100	334	363	199	199	103	110	182	109	196	345	107	207	353	187	335	345	200	103	213
103	101	193	188	350	215	211	202	332	112	347	182	332	210	183	201	204	105	186	365	348	352	338	184	184	337	0	350	361	350	105	335	362	215	191	345	79	354	356	211	213	357	190	110	337	101	360	81	90	183	97	93	204	94	110	98	104	187	77	186	105	202	352	196	213	211	212	210	336	77	206	362	367	368	101	191	95	194	338	366	187	211	364	201	357	85	184	339	110	204	215	87	345	183	336	357	349	199	85	359	197	92	368	362	202	187	106	204	340	351	337	198	96	334	100	336	106	358	201	83
368	99	88	81	203	84	342	365	86	352	357	339	90	185	341	354	79	86	92	337	350	106	367	214	100	200	199	109	355	106	190	90	364	185	332	81	213	105	107	205	190	217	103	92	102	110	183	335	102	193	362	367	344	207	84	92	194	354	98	77	349	77	0	342	198	361	98	196	193	201	186	192	188	349	361	211	214	355	183	209	217	81	211	108	190	110	215	77	202	113	363	84	191	96	83	335	101	97	84	212	189	352	213	359	333	200	192	204	363	112	206	211	94	202	109	77	83	188	198	182
191	204	87	349	92	81	210	337	110	364	362	95	86	90	217	111	109	367	193	359	192	349	351	86	364	207	77	335	103	199	105	201	216	198	84	78	184	199	78	106	97	199	198	93	209	86	214	216	198	209	363	211	343	195	192	94	90	89	0	184	216	88	190	343	336	344	195	198	341	87	88	350	357	344	81	103	98	98	333	97	359	341	79	211	333	336	358	354	338	217	107	192	340	188	354	109	187	192	197	104	213	360	80	345	104	364	205	107	90	113	77	341	213	345	183	80	367	105	109	96
341	100	216	332	215	211	192	99	195	109	333	184	80	357	201	93	362	102	90	92	99	106	210	336	109	359	335	359	200	190	78	198	209	99	353	198	107	92	210	359	202	336	352	341	352	98	110	80	186	213	334	218	202	185	357	106	78	365	215	189	218	351	357	191	212	87	366	82	88	88	79	183	183	183	184	187	98	183	332	195	110	101	107	82	367	333	103	201	102	338	342	0	213	192	349	112	79	185	360	200	98	110	215	349	217	211	82	360	79	93	112	97	213	367	97	105	358	188	187	334
191	368	185	210	79	214	182	104	77	83	368	79	358	184	356	355	85	201	360	204	355	183	100	217	348	83	186	332	216	208	341	87	96	92	188	102	102	184	208	85	191	109	91	96	113	343	348	107	198	190	100	83	94	368	84	198	96	215	354	212	83	108	193	81	338	187	201	189	334	214	195	186	105	362	209	88	204	202	218	366	205	189	340	333	345	368	364	356	208	84	215	85	187	196	111	214	343	351	111	91	206	358	110	83	182	198	201	102	215	201	339	345	368	107	0	218	81	205	189	200
192	365	188	184	211	212	95	197	355	92	109	108	106	87	336	193	80	191	82	107	351	199	90	78	0	104	81	209	215	95	80	338	352	111	185	215	345	350	214	93	205	337	342	81	344	338	84	188	103	214	78	103	209	342	217	355	82	208	77	366	333	366	215	81	205	184	203	191	205	359	343	346	196	215	338	99	106	88	340	95	335	80	366	199	191	108	111	349	204	91	346	344	343	358	207	344	217	334	202	202	356	332	193	101	208	211	101	97	353	195	205	215	95	108	113	97	356	107	111	211
197	346	207	195	83	99	342	89	78	349	346	355	87	367	351	103	104	83	109	109	112	216	365	342	91	105	77	345	342	203	359	108	368	332	214	353	347	356	110	111	101	188	195	203	190	108	93	83	216	105	186	193	345	193	209	79	204	364	96	210	337	209	201	186	186	202	198	94	340	188	192	84	342	192	111	102	189	100	87	347	86	185	78	94	204	216	0	341	340	103	111	364	348	106	182	194	368	357	96	201	358	102	209	217	196	88	77	94	360	206	201	216	195	367	195	342	347	215	191	204
91	360	211	100	209	332	210	81	85	78	341	362	348	353	343	361	332	205	195	361	349	194	104	207	94	345	109	345	341	203	77	333	103	104	103	110	113	201	353	102	82	201	355	95	214	188	101	105	100	203	197	97	208	185	210	96	204	197	189	209	352	214	214	339	344	200	190	362	196	103	97	82	102	83	349	102	196	113	187	216	97	201	333	336	0	95	195	214	194	361	364	109	204	342	333	363	212	97	344	334	336	90	196	87	211	352	96	347	348	182	367	352	205	361	112	98	207	216	103	186
88	197	95	193	353	199	110	213	113	0	205	202	198	188	346	97	367	182	87	102	193	193	196	83	217	111	87	90	354	97	86	352	215	361	367	193	189	358	218	216	189	187	193	211	93	342	110	82	104	349	81	78	362	203	368	81	108	81	207	333	197	200	361	108	109	217	336	364	362	205	190	356	191	350	213	193	201	352	100	366	107	79	204	112	104	91	99	89	353	354	106	91	202	202	209	357	83	208	349	187	353	365	81	202	368	357	110	190	338	194	358	343	78	343	345	98	92	108	88	192
111	213	199	205	107	186	113	99	182	193	211	217	360	91	198	354	190	334	113	190	338	97	207	347	102	184	356	361	204	97	200	89	194	99	340	350	77	85	183	0	347	187	204	336	84	78	188	188	213	216	363	113	340	349	351	336	211	100	338	100	207	99	90	207	98	217	189	210	215	349	361	112	358	193	364	218	79	79	183	350	354	362	203	359	184	202	359	111	99	182	368	198	362	368	335	343	106	349	199	81	106	358	183	210	366	90	84	206	211	193	107	112	184	361	352	78	218	365	81	354
185	345	191	205	88	333	92	344	202	345	365	208	106	359	359	358	204	198	100	190	86	360	103	335	338	84	363	343	91	97	333	361	366	213	355	100	187	345	106	93	0	93	345	211	112	368	215	339	332	80	362	82	189	337	352	188	209	107	210	350	188	99	358	88	212	360	192	99	211	88	99	211	93	100	113	337	184	190	84	84	198	342	208	95	87	211	105	102	88	183	348	95	364	347	360	81	85	193	78	351	192	205	332	195	191	211	90	192	113	336	364	341	104	95	190	349	98	89	193	105
208	190	184	192	80	107	196	204	97	198	347	341	201	198	103	199	367	342	367	351	96	215	192	108	101	101	187	348	202	197	93	365	184	352	193	361	349	111	94	342	355	190	332	350	366	355	365	105	333	216	90	190	344	349	83	91	199	95	197	207	349	100	196	350	351	190	95	92	354	109	184	92	97	108	95	332	217	85	202	92	107	214	98	93	360	182	106	355	353	86	356	77	83	105	188	360	93	213	78	113	209	342	0	198	362	197	204	341	338	86	85	333	96	110	217	195	213	342	334	213
358	342	0	99	91	363	217	208	96	353	368	336	349	368	205	100	339	86	96	92	194	187	78	184	345	84	183	188	217	109	211	339	366	105	200	365	361	78	338	112	201	203	215	352	202	102	195	355	188	366	204	334	94	346	348	183	332	88	95	341	81	208	360	364	213	189	90	87	91	111	190	201	90	193	183	203	106	364	203	187	87	345	347	365	110	201	345	189	184	197	189	356	102	204	347	101	197	368	107	101	193	102	362	339	112	211	360	188	193	211	343	338	205	84	94	96	200	194	95	355
106	207	79	85	185	208	203	91	364	364	335	205	88	183	84	182	350	102	198	195	78	111	183	96	210	101	359	190	99	78	93	96	186	356	198	109	104	200	364	106	205	334	87	187	362	105	344	202	205	192	183	100	98	198	0	368	95	347	198	202	190	218	106	215	194	339	337	207	86	101	341	214	182	218	208	197	184	88	209	96	218	105	94	196	209	184	342	353	362	81	339	109	90	344	95	98	338	337	347	193	343	362	212	355	203	79	216	336	337	190	358	349	203	337	110	193	88	364	97	187
334	358	107	187	182	192	348	333	339	211	196	333	113	183	198	197	210	207	337	353	195	95	337	95	82	358	183	362	343	79	91	366	207	343	360	88	77	215	186	341	87	103	96	217	85	366	113	198	78	341	360	334	202	339	189	191	101	95	187	206	361	362	103	192	113	195	111	193	363	113	83	100	204	204	337	365	105	87	346	208	112	208	367	110	349	204	344	184	365	185	215	344	199	0	200	213	351	113	352	360	105	367	365	107	198	346	106	91	345	218	203	184	81	182	344	335	343	210	87	108
366	360	335	187	0	182	366	193	189	190	101	205	80	78	109	203	365	108	188	84	187	105	86	340	341	204	337	88	202	195	348	359	191	106	83	354	364	364	102	217	190	362	363	97	187	339	195	100	358	361	367	103	200	205	88	112	337	188	111	210	341	188	80	186	202	92	185	190	194	335	80	96	81	95	356	196	338	361	98	92	366	218	84	218	333	354	365	218	218	188	111	101	189	346	91	77	203	350	199	368	112	208	182	333	200	95	351	201	201	333	101	186	97	199	347	98	336	343	107	194
214	347	191	338	187	211	368	362	101	364	350	336	197	355	358	200	201	205	195	191	206	0	216	101	77	357	356	198	335	216	184	196	213	185	217	364	93	356	361	103	364	183	99	203	99	105	358	348	88	95	83	336	197	85	92	101	343	214	191	113	113	78	211	363	191	360	91	77	344	112	212	205	185	113	357	91	202	109	355	182	109	186	198	215	206	191	196	355	357	344	367	91	367	194	106	188	362	184	198	198	358	216	338	107	203	183	90	359	349	216	96	82	351	102	191	98	85	341	98	107
335	355	349	98	334	106	88	218	207	362	103	213	204	363	336	211	345	183	204	366	86	189	198	184	355	347	346	333	363	358	355	196	107	106	196	368	199	216	201	204	85	335	362	333	185	91	97	368	197	111	344	90	206	184	340	83	91	215	191	95	216	98	214	354	98	212	368	338	0	346	201	203	332	334	340	209	184	83	210	363	345	96	210	194	91	344	94	339	88	79	217	99	368	212	80	111	332	103	217	200	338	214	184	196	188	196	94	94	337	338	203	209	94	337	337	91	347	90	94	367
183	106	343	344	354	355	113	194	81	207	208	204	92	94	209	88	353	191	95	191	205	345	344	353	359	107	201	208	207	92	345	203	362	112	198	346	190	98	189	77	113	193	365	348	363	200	212	105	105	361	95	360	77	92	92	94	204	85	350	188	206	205	210	211	205	78	96	194	189	80	96	182	113	213	356	338	188	183	185	358	364	95	81	348	99	183	212	0	336	89	111	92	351	349	113	93	109	82	187	352	203	197	103	182	198	201	356	358	199	204	334	85	90	353	195	211	349	98	194	359
199	367	187	99	108	332	334	79	216	355	360	217	337	78	340	113	193	85	104	86	101	357	99	345	199	96	184	182	100	363	98	80	354	346	200	104	338	100	360	363	107	341	87	99	90	352	111	346	86	212	84	368	202	81	336	217	356	0	99	356	201	90	366	100	86	217	84	211	190	360	189	355	359	363	216	358	355	211	357	361	214	103	335	91	203	79	342	365	85	78	81	78	94	194	334	81	344	88	107	210	90	87	89	346	84	364	215	204	212	112	79	348	97	341	206	366	336	215	366	359
82	333	186	347	214	191	342	214	101	200	79	101	357	98	105	217	341	210	191	183	347	199	332	338	217	332	106	112	215	109	341	100	186	87	196	200	355	215	199	110	340	197	198	339	104	206	366	347	186	203	87	368	113	214	194	346	214	348	360	103	96	100	341	351	190	203	200	364	340	80	191	104	337	355	102	203	357	99	358	87	204	195	187	0	104	94	351	334	345	351	182	213	366	198	365	336	97	81	92	80	339	105	203	365	205	103	339	333	215	348	206	191	359	89	357	193	185	190	103	194
214	350	85	199	361	340	354	186	105	87	347	199	193	106	347	336	198	334	81	361	88	213	367	186	111	211	185	101	365	78	209	362	95	184	191	189	0	339	206	345	101	347	338	211	82	196	108	346	97	99	109	202	189	110	94	204	89	96	77	348	353	106	367	346	82	183	193	77	355	218	182	203	356	214	190	80	191	333	99	332	107	189	360	100	362	106	93	191	361	335	198	349	110	342	357	356	184	200	111	186	218	367	339	339	182	111	336	334	189	193	85	207	204	348	345	336	196	110	215	199
91	183	365	199	193	355	93	98	86	349	366	350	368	194	81	338	339	216	347	365	354	90	340	80	86	339	92	217	218	217	85	84	189	84	201	194	211	211	185	204	344	339	366	83	81	183	337	209	361	198	77	198	355	192	212	364	357	82	210	351	90	346	338	349	107	357	110	197	78	111	338	361	107	215	337	208	208	351	108	109	88	189	113	89	218	97	87	94	97	200	78	185	361	338	100	111	186	207	101	336	185	108	368	210	203	348	106	206	352	112	341	186	200	198	367	107	0	213	98	365
80	197	198	209	211	206	343	336	193	95	108	190	106	339	98	356	354	87	206	209	348	214	351	188	358	88	96	79	93	346	94	77	214	343	351	106	91	90	108	205	81	96	80	339	360	334	89	206	205	207	366	105	0	87	362	345	205	88	362	350	361	113	111	82	77	200	211	336	82	113	338	200	361	88	97	189	113	209	357	358	206	196	214	365	194	95	190	99	111	195	85	208	345	341	182	207	78	86	191	110	346	205	196	365	188	197	338	202	105	361	203	190	355	355	80	106	215	111	190	334
89	362	367	365	362	196	212	102	0	206	358	351	352	215	88	361	91	186	106	185	355	213	195	78	107	368	100	209	366	357	210	99	335	213	97	98	182	105	200	202	184	87	201	77	212	108	97	102	344	366	358	346	111	95	112	102	357	78	187	108	359	193	83	364	94	95	202	193	367	208	213	93	79	359	335	88	103	182	337	361	346	190	340	85	98	104	98	203	103	332	92	333	94	105	186	94	109	97	94	349	90	358	189	106	356	368	218	334	190	362	186	105	348	346	348	104	211	182	88	80
343	350	85	85	348	358	340	345	192	85	217	200	84	106	336	368	211	337	340	338	362	111	217	113	79	360	191	104	195	347	206	197	105	87	359	198	334	113	359	108	362	86	218	366	354	358	340	340	98	112	94	112	95	349	94	354	204	354	345	344	202	88	200	187	345	342	358	344	186	100	187	196	366	212	84	332	80	215	364	337	91	364	87	110	364	90	192	361	90	0	103	203	207	347	353	347	205	344	364	93	100	201	102	102	212	213	113	89	108	199	190	194	85	98	98	359	333	87	217	109
363	350	81	200	108	208	335	194	200	113	81	185	216	101	344	344	200	93	89	207	188	111	191	214	356	184	193	217	202	360	340	352	340	213	211	345	351	349	361	339	363	337	104	102	108	338	335	212	338	0	205	364	83	185	190	94	78	197	182	92	216	211	193	341	343	364	92	355	348	81	110	211	112	339	93	351	190	113	208	345	95	358	333	214	202	195	187	79	362	347	345	358	101	348	93	357	348	183	90	91	77	85	215	92	78	356	186	187	97	364	203	92	355	346	204	343	362	356	197	189
109	98	332	360	202	343	0	366	212	111	189	190	355	81	343	198	216	108	352	110	361	92	112	339	362	359	350	338	340	186	193	102	111	218	78	100	218	208	204	182	102	211	361	81	212	360	95	217	193	213	97	349	186	350	80	358	355	344	363	83	202	110	191	110	364	103	192	187	77	94	86	189	77	190	87	361	90	363	361	204	85	360	91	214	337	358	85	353	188	200	94	195	89	193	343	337	84	364	205	361	341	356	190	85	363	213	212	335	365	342	217	99	86	348	337	188	353	110	94	357
355	348	189	101	184	351	332	361	365	192	342	105	82	96	99	337	359	215	332	91	80	214	185	205	105	107	108	211	343	104	354	206	0	184	97	192	205	101	96	101	357	366	87	334	204	183	95	347	363	356	197	217	77	361	356	351	192	212	335	347	106	183	212	349	102	96	95	355	352	95	197	97	183	367	82	194	113	364	112	211	353	193	188	198	106	337	346	183	203	348	194	190	339	201	108	206	347	342	97	348	104	184	216	352	193	207	205	353	217	186	202	199	342	77	95	336	362	90	336	182
195	355	208	185	359	360	356	84	111	202	354	351	334	335	193	190	351	185	368	365	188	95	93	188	87	206	215	78	187	97	210	109	209	199	79	194	216	333	361	196	95	200	335	100	188	347	102	363	188	347	102	106	98	193	197	189	112	207	348	353	208	354	189	367	350	192	0	92	105	216	97	198	88	340	190	367	113	195	336	86	339	89	366	201	103	83	183	186	99	79	345	194	197	201	348	84	92	332	217	194	215	332	354	102	202	83	352	187	343	348	88	354	211	81	212	361	334	217	347	347
346	103	101	340	104	204	79	358	217	81	216	96	341	0	214	366	352	106	99	332	189	211	109	358	82	89	204	206	345	110	104	343	188	95	195	203	361	84	216	351	334	97	209	202	338	339	343	102	89	195	363	338	183	97	112	341	101	216	95	89	88	111	355	360	196	362	203	96	204	104	191	336	335	343	93	80	200	182	91	90	96	84	105	368	341	106	200	86	207	345	102	106	93	100	84	109	363	344	362	183	82	109	95	107	362	99	208	182	94	209	342	202	203	102	108	194	198	332	354	340
95	333	97	187	365	349	107	197	187	348	96	349	0	347	356	336	218	343	355	185	195	358	210	88	113	79	110	341	206	339	199	336	96	358	89	182	182	334	88	360	217	355	190	104	90	198	347	110	198	182	99	191	182	211	351	338	192	187	187	363	333	356	109	79	82	82	332	186	216	361	110	338	204	366	207	211	77	84	365	83	96	363	212	339	360	342	112	92	215	197	340	81	351	344	204	206	203	350	101	104	187	106	203	362	109	368	348	184	81	338	193	205	90	204	208	333	332	335	86	343
350	344	335	213	99	366	357	109	184	207	112	367	348	195	0	95	366	200	77	353	87	340	91	356	185	362	204	366	107	185	336	346	100	350	211	94	335	96	100	367	102	349	203	96	197	87	334	194	92	344	187	189	82	204	188	89	98	93	80	107	343	97	205	359	194	90	99	111	110	197	213	218	192	359	104	362	190	183	186	348	335	79	363	352	107	94	342	85	359	362	202	90	101	90	187	81	214	98	342	93	361	189	95	83	194	107	79	202	198	96	88	332	90	197	363	213	336	204	104	346
113	96	184	348	108	0	203	182	358	344	366	334	82	104	198	208	337	348	341	207	347	216	212	203	350	200	334	364	77	79	182	80	339	95	100	191	190	337	346	344	200	183	217	335	108	192	87	191	218	365	101	197	205	212	207	112	198	103	106	353	343	196	193	109	79	182	91	98	93	349	94	204	342	205	109	359	79	182	362	86	95	183	361	356	345	201	77	77	211	81	108	208	189	364	211	99	213	344	341	347	339	89	338	109	360	207	111	78	345	362	360	209	86	340	333	109	215	204	94	102
216	206	110	199	83	101	209	82	89	365	183	87	103	103	195	210	84	336	217	98	355	199	190	87	89	212	93	202	343	103	189	334	205	205	186	94	99	89	107	355	342	80	202	89	352	363	341	78	208	186	0	191	202	202	337	104	356	86	216	201	196	110	184	88	111	196	367	359	183	361	349	216	81	347	354	365	189	106	78	364	200	350	83	193	218	98	82	97	204	341	350	189	104	347	366	346	107	84	345	210	340	364	205	206	108	207	182	100	95	348	87	83	214	103	208	190	362	80	105	336
112	182	102	183	93	193	199	367	103	184	334	201	91	351	94	90	89	195	209	344	186	193	365	194	78	215	101	111	185	207	344	88	336	195	99	185	199	99	348	343	362	104	81	367	95	340	215	206	365	347	363	218	102	367	88	89	96	81	110	106	332	339	86	351	332	349	194	85	108	101	355	86	184	112	333	84	103	97	183	359	212	83	339	343	210	364	84	106	96	189	356	347	341	92	197	213	182	99	109	349	218	201	203	77	341	109	338	201	90	215	211	82	195	0	363	365	197	354	86	341
87	204	82	111	336	356	202	102	100	89	353	88	183	332	339	186	203	348	199	342	113	342	90	186	353	98	112	203	359	99	201	105	338	209	108	106	86	333	216	198	91	344	356	77	344	0	344	368	348	352	87	189	214	192	192	192	195	198	82	332	199	348	357	210	98	102	341	349	96	195	346	86	208	344	208	360	103	354	195	336	337	83	89	205	354	205	94	203	98	85	356	194	103	90	351	78	368	104	77	338	208	350	333	358	362	88	196	209	199	205	80	335	214	100	354	78	79	342	348	360
182	216	86	356	184	87	343	333	201	78	215	352	347	364	334	94	338	91	211	84	346	113	209	83	109	343	348	95	87	95	93	353	81	195	365	366	216	87	105	207	111	349	364	212	335	213	81	187	217	342	211	87	188	0	202	84	365	338	104	98	215	108	337	83	182	343	103	110	85	77	199	95	332	200	84	362	107	211	360	103	107	214	102	353	79	366	83	182	183	348	349	210	349	350	111	365	212	350	183	197	192	194	198	186	210	198	215	110	340	88	80	101	111	348	334	336	206	78	213	83
92	93	356	94	357	210	334	82	91	198	356	345	104	110	200	347	201	82	201	197	111	92	85	100	191	215	214	88	208	335	366	79	356	98	351	82	85	0	187	191	215	81	360	196	351	87	341	363	338	113	105	93	90	102	102	196	98	107	355	217	364	101	78	195	332	182	88	363	106	88	88	364	101	89	217	216	357	210	367	206	197	347	88	102	352	353	192	337	111	205	363	360	208	354	89	365	205	97	368	210	367	347	346	368	339	189	364	359	335	334	94	107	77	84	107	88	342	367	358	361
195	332	360	217	352	187	91	336	185	203	342	187	368	197	189	86	203	182	195	344	361	368	337	101	345	182	89	349	217	337	188	0	101	215	363	197	187	341	333	91	212	108	339	365	79	196	334	93	89	209	183	360	190	89	367	92	82	97	346	78	209	355	89	96	80	187	82	100	184	350	88	204	334	209	110	352	186	346	204	93	203	100	366	214	207	347	354	335	86	194	182	199	97	192	96	88	86	186	105	354	359	336	186	200	182	337	184	212	192	103	334	333	109	193	214	188	361	336	197	77
94	93	365	345	196	349	84	190	201	210	207	350	207	96	183	349	338	216	182	213	113	217	354	367	209	193	361	101	112	0	191	215	91	368	212	335	77	344	355	98	342	94	204	333	343	89	80	202	348	366	364	193	217	193	82	87	356	185	82	95	99	184	88	87	81	352	191	97	214	194	98	215	98	359	337	340	186	197	208	195	344	201	83	82	357	214	335	365	357	207	185	361	105	355	346	343	77	105	186	99	340	209	216	103	216	182	351	193	105	209	349	348	194	197	332	106	342	201	99	216
99	368	91	193	80	183	113	83	359	213	212	367	354	368	332	81	207	182	203	109	189	199	101	347	355	343	360	340	186	187	78	107	90	193	360	214	358	193	354	354	113	96	189	86	348	112	202	217	209	109	360	110	356	85	203	190	342	351	347	187	209	359	92	217	182	85	185	105	364	201	92	93	98	193	201	189	200	204	215	86	110	96	218	218	190	105	217	83	363	208	357	102	201	104	349	108	87	195	332	107	0	332	338	203	343	366	95	207	100	335	344	346	184	338	366	347	196	354	84	106
216	86	86	100	359	112	351	98	348	104	0	335	208	345	211	206	210	200	367	81	87	77	335	347	89	192	102	342	213	189	356	113	195	203	102	84	97	183	202	368	352	349	368	108	200	209	364	350	102	104	208	198	363	82	90	352	349	199	85	85	188	205	103	199	195	187	194	88	343	217	336	367	345	189	366	210	351	78	366	334	81	92	190	82	350	334	357	107	345	101	215	207	338	190	189	339	200	362	79	332	366	360	216	347	365	101	359	360	100	91	188	95	98	343	354	198	216	345	365	343
210	196	92	109	199	195	334	77	347	343	92	100	107	344	184	357	105	350	105	104	339	335	109	216	108	81	186	198	84	211	356	357	186	81	94	86	334	98	80	104	345	107	337	188	203	359	192	89	97	108	353	350	112	102	359	107	87	81	345	333	100	207	183	346	340	359	95	347	186	100	202	193	361	198	200	199	0	336	198	193	363	343	189	83	352	365	87	82	360	187	78	82	366	191	97	346	86	366	211	353	200	215	365	93	362	107	366	79	183	361	96	212	89	105	82	92	89	336	110	335
199	339	104	81	366	108	102	363	214	336	107	183	200	337	190	206	348	96	204	103	185	201	182	199	356	91	199	346	194	92	339	209	341	217	77	218	363	204	93	198	91	356	338	88	203	350	211	215	195	335	356	353	104	363	208	182	218	213	343	209	105	80	96	184	216	349	336	109	97	182	335	199	102	210	196	105	217	113	206	86	78	182	182	196	197	106	111	82	358	210	104	349	104	83	195	363	367	88	108	80	202	333	365	209	95	103	189	107	99	90	109	91	80	346	111	212	199	186	0	97
339	84	198	356	356	105	97	346	357	365	216	356	186	94	218	362	214	332	80	341	111	89	81	215	353	106	358	345	87	358	333	107	182	358	367	335	83	345	193	344	191	343	97	335	97	185	204	350	348	96	188	352	193	110	210	363	108	350	90	368	204	109	83	204	110	78	80	196	355	202	338	206	0	202	332	196	347	103	96	187	184	95	335	101	194	360	99	97	348	81	196	209	86	346	197	211	340	363	105	204	351	218	94	362	334	213	343	189	111	198	354	335	105	83	204	333	365	83	356	187
182	202	345	364	79	83	361	212	345	213	213	84	213	96	216	368	103	88	187	342	351	199	188	348	184	213	95	90	366	193	189	113	209	348	89	363	103	108	113	85	90	366	212	96	97	110	218	352	94	78	343	204	345	350	212	347	341	92	97	0	348	194	337	110	360	94	94	89	106	358	335	189	203	367	92	183	357	182	205	194	93	333	337	188	204	367	84	186	336	187	362	215	341	182	367	92	338	85	99	85	86	189	352	95	182	96	356	89	354	206	100	362	367	208	336	213	85	357	107	110
198	184	357	187	211	216	343	188	188	346	79	85	200	107	112	86	351	217	209	347	0	199	188	189	188	91	108	194	89	195	214	103	349	335	184	356	185	81	346	95	349	96	201	184	338	97	91	110	83	366	105	368	333	356	215	192	91	184	99	96	358	364	215	200	89	361	183	204	186	212	88	109	199	203	355	334	218	198	197	356	349	346	216	359	182	104	363	343	339	102	347	211	342	194	80	190	359	99	212	344	186	366	339	184	109	197	353	342	85	209	88	112	360	347	87	85	342	202	182	350
346	212	355	196	94	342	352	86	366	108	193	97	93	213	342	358	361	358	206	199	207	357	97	364	89	98	217	332	205	358	78	87	359	207	196	343	350	368	183	183	214	103	217	190	342	197	333	339	215	198	362	339	359	185	340	340	99	339	79	194	190	336	364	186	204	199	207	345	202	353	97	339	113	189	199	363	101	212	348	202	338	343	186	85	201	344	204	338	348	337	80	96	80	208	354	109	334	335	0	210	197	349	355	83	212	86	80	90	367	88	207	95	84	338	90	214	342	96	190	110
345	355	104	103	339	93	95	189	103	111	349	208	97	217	362	78	193	217	365	97	212	97	91	202	109	104	366	341	353	183	184	110	368	202	347	206	216	86	79	187	199	99	218	82	88	105	77	105	192	346	104	98	352	354	189	112	203	203	217	109	85	77	193	97	186	346	83	362	106	332	342	354	106	102	91	85	81	339	357	93	343	87	206	83	218	183	78	196	365	357	359	189	185	77	206	359	0	105	351	188	363	349	187	203	351	187	81	113	205	216	213	334	86	350	347	366	112	205	365	106
89	199	343	346	345	81	360	107	351	99	368	216	78	364	337	202	100	78	88	104	343	361	213	199	345	355	193	80	368	353	93	194	79	363	184	91	98	351	94	84	360	336	346	99	77	95	103	211	360	208	340	361	97	211	204	368	368	189	348	98	216	211	78	363	185	113	191	360	201	196	182	362	182	348	334	347	86	88	194	347	77	367	218	218	362	212	343	209	112	341	91	216	90	360	215	213	210	102	342	203	95	98	347	358	357	202	0	190	95	104	218	87	197	99	209	367	108	182	187	343
337	215	342	94	182	339	333	199	89	82	94	340	192	83	96	100	359	361	355	368	88	338	186	351	212	92	85	83	351	341	206	363	346	356	194	81	106	80	97	197	364	342	212	213	206	101	334	84	206	190	77	212	98	90	206	110	191	199	354	106	217	182	204	92	356	358	356	77	83	351	100	336	186	358	193	184	78	364	0	197	182	353	105	205	352	209	343	83	98	90	107	346	197	188	102	199	211	201	368	334	208	368	348	109	113	94	364	195	201	357	83	103	101	86	104	334	187	197	81	109
103	87	332	204	335	190	354	344	92	95	341	214	338	334	191	208	207	350	218	203	350	208	196	346	109	85	197	340	209	358	88	354	347	81	213	104	193	350	354	87	101	106	357	211	333	205	0	216	355	341	79	200	81	205	336	100	194	352	353	195	85	218	110	193	333	188	88	185	184	99	218	80	88	99	334	360	82	182	336	185	183	87	187	187	350	77	346	92	204	97	337	110	336	92	103	352	196	183	356	102	87	82	110	366	210	358	208	358	94	106	101	106	203	341	187	87	86	351	195	353
210	215	201	340	193	214	334	100	101	353	202	90	365	367	343	102	207	82	337	368	82	77	186	337	104	192	194	215	109	198	193	353	84	0	367	96	95	204	366	211	102	81	188	365	352	101	193	109	218	215	208	196	332	96	187	106	354	201	215	92	182	335	342	111	348	338	358	84	92	90	79	352	197	352	358	356	88	337	92	213	85	192	190	86	196	352	105	196	199	81	80	351	91	192	216	353	77	357	83	353	113	198	194	338	93	96	79	190	205	188	93	190	365	342	77	365	333	111	356	198
337	359	340	354	81	90	185	363	83	201	186	346	190	353	343	341	214	348	364	111	198	211	359	193	203	355	101	343	358	215	347	92	81	101	103	90	366	86	82	361	77	355	82	334	196	337	357	362	111	362	216	111	96	186	352	0	88	187	184	105	340	351	185	201	188	366	332	349	194	218	113	192	338	108	185	198	204	182	343	366	368	360	79	206	366	354	362	187	201	199	192	200	214	192	112	98	354	354	363	199	100	218	98	204	341	79	90	339	113	103	344	186	93	365	112	365	99	211	195	196
90	362	334	343	218	362	215	349	335	84	363	198	210	99	349	357	105	348	113	108	213	361	190	354	216	102	192	366	365	206	196	218	83	340	355	346	214	337	218	102	208	334	77	367	184	86	194	101	84	339	201	215	101	368	349	355	89	342	206	197	85	87	198	342	197	87	348	360	196	339	213	80	209	364	216	189	185	356	203	340	364	79	350	202	186	196	78	193	106	351	332	200	344	197	111	90	90	354	188	0	212	102	209	202	78	183	106	218	188	101	182	183	110	79	345	84	358	186	202	108
202	211	202	366	351	365	201	196	359	110	201	360	359	354	218	104	102	194	209	197	88	216	332	339	91	215	112	216	209	368	192	202	107	102	348	190	334	349	104	208	361	363	190	79	103	211	209	99	207	212	88	208	194	106	340	338	96	341	87	344	337	85	214	196	218	91	360	186	205	343	205	363	354	350	342	97	215	182	88	112	211	206	95	93	351	350	341	80	105	344	358	355	217	94	343	335	207	346	336	192	106	200	80	211	349	193	216	340	197	78	211	83	204	341	197	0	83	80	345	203
189	207	103	101	199	79	336	83	350	205	196	104	82	78	340	353	355	341	78	355	357	205	78	0	350	216	335	84	343	213	103	345	341	334	350	346	342	213	366	367	189	185	86	91	347	217	79	197	89	82	362	191	209	346	99	82	206	354	211	215	85	191	368	91	184	104	186	81	340	87	344	88	362	337	190	190	340	366	92	96	364	341	205	83	210	103	188	95	93	357	351	358	90	89	82	346	337	366	217	352	342	203	199	77	192	81	205	352	112	197	215	218	87	87	80	192	213	104	81	110
192	350	198	190	95	341	340	207	98	109	207	218	105	113	332	196	205	343	198	109	112	350	80	364	360	84	186	351	354	82	349	93	359	352	211	213	213	354	200	84	348	86	104	95	196	202	204	0	363	199	110	184	205	189	350	337	211	214	205	81	185	358	215	112	339	99	347	88	364	342	355	357	350	187	87	77	110	77	200	341	343	345	204	338	211	359	93	368	367	196	101	91	204	210	336	110	218	111	341	207	199	362	87	209	183	184	112	199	357	101	361	346	342	200	339	113	190	182	87	367
213	97	365	194	199	189	366	210	84	110	184	80	107	347	363	362	184	218	351	340	192	184	348	191	196	108	212	187	84	109	206	363	193	204	107	103	334	101	200	108	332	0	183	184	350	189	344	332	85	206	94	109	190	185	337	214	360	77	78	112	189	205	209	91	200	216	344	79	212	189	347	366	182	351	359	203	360	336	105	112	202	350	99	111	106	84	190	186	104	341	79	89	349	334	201	216	103	79	218	360	200	202	191	209	368	350	215	202	344	214	345	107	212	184	198	347	99	92	96	84
204	195	109	0	352	360	111	210	94	78	337	339	206	216	337	184	213	196	352	218	110	102	96	192	93	183	83	210	85	360	336	332	99	213	354	94	84	209	104	108	337	217	91	347	198	77	88	185	113	206	78	363	97	362	202	85	363	192	203	193	208	99	187	94	79	217	108	94	357	80	337	193	201	88	354	97	348	101	77	200	356	79	97	195	99	339	77	96	85	110	334	86	363	194	358	190	106	365	193	332	349	366	349	98	201	194	107	334	112	194	218	89	367	214	215	188	97	187	96	365
367	191	349	110	113	214	355	194	217	343	217	343	207	86	335	80	218	351	192	345	355	201	89	195	90	338	366	211	88	190	112	352	367	93	211	193	207	89	102	340	358	333	106	352	104	195	184	351	102	194	183	193	189	107	186	89	211	360	333	98	89	345	96	103	211	0	212	213	190	364	364	101	87	182	187	368	199	206	88	106	89	203	352	105	340	78	348	198	90	89	216	196	366	341	186	203	364	99	341	361	96	350	194	366	97	210	202	335	355	103	104	90	211	81	201	337	363	361	353	196
101	193	89	112	340	97	360	359	190	102	102	95	365	185	89	103	209	107	107	346	337	109	367	218	98	109	349	363	108	107	208	87	203	212	193	333	101	199	217	101	196	199	81	207	341	195	85	335	349	217	349	360	346	102	190	95	188	350	366	203	195	367	333	215	113	88	337	0	206	80	108	210	337	332	357	332	344	187	212	107	79	335	200	84	212	99	217	356	94	108	206	84	105	88	349	105	182	363	194	216	93	93	197	185	214	217	363	332	333	183	188	203	343	106	102	345	204	360	84	346
105	340	213	347	78	345	197	358	184	102	353	363	205	216	199	100	346	340	192	113	211	197	89	184	352	97	90	333	107	107	344	101	94	190	342	357	103	192	193	204	214	343	211	341	186	107	197	356	200	215	98	81	368	192	86	345	91	212	363	192	79	183	212	349	84	80	107	79	332	359	362	85	188	347	362	104	192	103	113	216	368	77	89	110	184	205	203	354	339	334	90	82	366	81	335	351	208	342	187	209	79	101	348	80	196	364	210	86	188	197	0	341	360	202	192	83	353	79	182	195
344	367	209	183	189	100	352	191	186	340	215	218	365	352	344	193	368	368	196	113	98	96	201	334	367	336	90	352	190	352	332	366	345	196	195	352	212	215	350	201	366	213	190	182	192	334	78	193	352	353	349	205	198	367	100	344	205	357	212	82	204	78	214	215	193	107	360	91	350	196	104	80	354	83	195	333	353	0	197	351	360	87	355	355	356	194	108	209	343	78	203	351	362	197	197	346	341	352	101	199	350	341	94	86	197	213	111	100	107	111	198	192	214	189	210	207	188	212	202	335
89	92	355	204	212	365	94	193	364	360	336	335	341	81	353	364	84	98	337	349	200	218	188	183	338	343	364	368	217	192	354	208	205	215	112	77	216	358	194	350	365	355	95	356	108	192	354	200	345	113	354	352	342	198	82	84	339	200	196	96	80	113	195	196	333	213	113	92	368	216	341	350	349	205	93	342	92	85	99	342	185	108	186	183	359	106	340	205	92	94	342	340	107	336	95	209	203	339	190	195	98	78	190	0	351	111	214	216	345	356	356	196	112	218	80	103	78	357	208	356
367	92	216	347	91	208	209	337	339	111	355	347	200	188	215	110	108	86	0	81	103	352	188	364	185	215	360	358	210	107	82	349	217	333	97	332	101	108	342	336	366	366	207	80	202	202	112	344	354	104	195	95	362	368	107	77	368	83	336	101	97	185	361	204	199	201	97	351	83	206	354	102	204	199	354	348	332	183	357	105	364	358	354	348	107	216	90	199	81	103	353	350	361	210	356	102	212	93	88	102	337	343	343	360	340	360	334	82	217	113	361	84	192	81	361	345	334	189	183	199
194	363	212	202	201	213	359	107	187	368	338	79	357	95	83	355	336	112	182	344	187	97	185	358	188	90	213	216	339	215	218	215	183	85	348	93	367	192	353	80	357	98	189	108	111	358	215	210	361	346	347	364	368	105	185	88	192	201	349	349	198	212	200	183	339	365	357	183	186	104	0	217	85	83	361	216	195	206	192	110	191	347	192	345	112	206	87	93	186	356	106	349	111	333	81	363	365	78	342	355	351	218	106	361	196	107	193	352	339	351	202	336	90	216	204	350	346	185	83	108
81	190	95	349	101	192	202	187	349	203	95	346	203	210	200	345	0	192	203	342	340	355	84	217	365	335	104	338	211	340	189	350	337	183	183	353	335	210	335	186	187	217	191	347	362	208	108	211	210	361	217	95	366	346	339	352	356	355	107	351	183	79	190	348	98	355	360	358	88	86	87	194	333	87	189	86	351	91	194	103	367	209	196	93	356	186	354	101	208	103	79	365	184	104	196	113	86	192	351	362	203	355	103	108	100	338	216	337	187	78	338	195	218	346	108	203	86	356	356	96
360	96	345	338	339	213	113	342	368	355	358	104	192	364	96	356	107	203	106	96	195	342	80	78	89	183	348	93	350	78	336	89	360	206	337	81	189	200	349	83	198	200	202	191	358	86	104	89	191	187	92	342	96	202	357	182	90	365	92	347	97	361	189	182	355	104	79	110	348	194	344	101	338	77	205	105	192	183	336	350	194	108	98	207	89	335	206	182	92	213	363	113	84	364	91	363	86	207	207	94	201	84	216	108	347	213	187	355	81	197	97	80	363	201	209	195	91	184	82	0
99	188	80	198	357	203	113	333	352	105	77	347	85	342	99	184	216	101	334	346	200	95	214	183	92	360	86	334	204	113	334	334	102	92	193	333	348	87	192	193	207	217	93	202	358	93	91	346	341	191	336	334	77	187	105	184	192	212	205	200	190	111	361	0	336	201	336	363	365	342	201	85	188	362	88	349	205	191	211	186	192	209	98	202	182	354	183	366	362	190	189	112	187	346	84	355	364	344	352	198	357	345	350	362	367	107	196	210	90	102	362	87	78	193	87	112	337	78	82	99
340	108	332	353	364	184	209	361	204	93	103	206	354	92	213	210	86	351	344	345	210	110	353	356	184	215	94	358	209	336	112	189	84	202	356	364	98	111	218	194	357	337	90	90	197	103	111	216	110	368	215	197	80	346	338	85	182	194	360	364	196	182	217	193	334	86	110	203	88	352	185	348	210	113	105	363	189	193	358	354	87	111	336	365	212	217	102	81	183	200	197	207	183	218	0	80	199	357	206	355	183	336	201	78	197	210	218	77	77	82	190	215	200	195	98	110	210	354	340	98
346	89	210	367	191	108	93	182	91	191	93	353	190	99	202	109	368	205	354	349	94	359	190	197	189	334	351	197	184	94	81	363	199	193	340	0	90	192	185	112	96	337	343	202	337	87	85	332	98	201	365	104	345	107	100	343	200	217	359	346	188	192	202	87	211	100	189	81	349	97	213	82	356	209	204	200	194	184	368	339	111	192	349	95	82	368	93	337	367	358	85	361	91	112	214	198	341	214	103	98	354	182	94	205	105	199	190	218	210	87	213	108	197	197	113	183	92	365	107	98
89	335	92	104	83	83	103	100	87	89	188	347	103	84	207	108	85	81	81	210	104	353	99	199	214	182	80	0	359	89	333	91	215	100	204	104	82	218	194	113	91	83	190	347	341	353	100	206	89	110	91	207	357	203	111	192	335	82	97	94	338	192	216	202	78	187	347	83	79	346	210	90	205	94	365	195	187	365	347	110	95	362	365	214	364	78	83	108	338	356	87	204	336	360	218	79	95	332	91	213	197	100	336	363	202	343	101	341	199	86	367	84	86	79	343	92	365	96	212	80
198	94	196	336	209	343	192	363	354	110	356	84	349	185	359	341	349	89	96	200	336	201	334	182	184	104	344	99	213	190	81	212	112	360	352	361	192	354	0	90	206	95	194	188	112	365	339	92	200	333	105	77	358	212	206	338	111	189	102	365	92	363	217	92	201	193	196	110	182	361	218	347	209	186	89	111	90	108	352	203	105	106	104	95	204	194	345	92	101	97	201	85	94	106	196	193	193	346	110	337	216	202	107	334	197	368	111	352	368	87	353	90	349	360	198	355	205	203	361	106
